…
R側にPythonのオブジェクトを読み込む時


```r
py <- import_main()
df_a <- py$df_bill_body

df_a %>% 
  as_tibble()
```

```
## # A tibble: 152 x 2
##    bill_length_mm body_mass_g
##             <dbl>       <int>
##  1           39.1        3750
##  2           39.5        3800
##  3           40.3        3250
##  4           NA            NA
##  5           36.7        3450
##  6           39.3        3650
##  7           38.9        3625
##  8           39.2        4675
##  9           34.1        3475
## 10           42          4250
## # … with 142 more rows
```
